<svg xmlns="http://www.w3.org/2000/svg" viewBox="-16835.23 -19964.455 16.934 17.709">
  <path id="Union_1146" data-name="Union 1146" d="M0,17.709v-1.6A6.41,6.41,0,0,1,6.231,9.562H10.7a6.411,6.411,0,0,1,6.23,6.544v1.6ZM4.7,3.815A3.815,3.815,0,1,1,8.516,7.628,3.815,3.815,0,0,1,4.7,3.815Z" transform="translate(-16835.23 -19964.455)"/>
</svg>
