<svg xmlns="http://www.w3.org/2000/svg" viewBox="-16837 -20303.254 21.25 15.736">
  <path id="Union_1150" data-name="Union 1150" d="M1.091,15.736A1.091,1.091,0,0,1,0,14.645a1.178,1.178,0,0,1,.319-.771l1.175-1.482,3.648-4.6L7.3,5.071A1.08,1.08,0,0,1,8.621,4.9l.536.336L12.4,7.273l.363-.361,4.078-4.058.676-.673H16A1.1,1.1,0,0,1,14.91,1.091,1.1,1.1,0,0,1,16,0h4.16a1.1,1.1,0,0,1,1.091,1.091h0V5.25a1.091,1.091,0,1,1-2.181,0h0V3.711L15.862,6.9,13.324,9.429A1.1,1.1,0,0,1,12,9.6l-.536-.336L8.312,7.282,7.666,8.1,4.018,12.7l-2.156,2.72a1.044,1.044,0,0,1-.771.319Z" transform="translate(-16837 -20303.254)"/>
</svg>
